{
    "index": {
        "download_fdroid": "下載 F-Droid",
        "introduction": "F-Droid 是一個可在 Android 平台上安裝的自由與開源（FOSS）的應用程式目錄，可供您輕鬆瀏覽、安裝並持續追蹤裝置上應用程式的更新。",
        "gpg_signature": "PGP 簽章",
        "screenshot": "F-Droid Android 應用程式螢幕快照",
        "title": "F-Droid 是什麼？"
    },
    "navigation": {
        "about": "關於",
        "documentation": "文件",
        "forum": "論壇",
        "browse": "瀏覽",
        "contribute": "進行貢獻",
        "repomaker": "Repomaker",
        "tutorials": "教學",
        "news": "新聞",
        "issues": "問題"
    },
    "package": {
        "anti_features_warning": "此應用程式可能有您不喜歡的功能",
        "website": "網站",
        "permissions": "權限",
        "donate": "捐助",
        "liberapay": "Liberapay",
        "technical_info": "技術資訊",
        "build_metadata": "構建中介資料",
        "author": "作者",
        "new_in_version": "新版本 [latest_version]",
        "version_info": "<b>版本 [package_version]</b> ([package_version_code]) - 於 [package_added_date] 新增",
        "changelog": "更新日誌",
        "issue_tracker": "問題追蹤系統",
        "signed_by_developer": "此套件包由原始開發者構建和簽署。",
        "gpg_signature": "PGP 簽章",
        "signed_by_fdroid": "此套件包由 F-Droid 構建，並保證對應於<a href=\"[source_code_url]\">此原始碼 tarball</a>。",
        "packages": "套件",
        "download": "下載 [file_extension]",
        "license": "授權條款",
        "minimum_android_version": "此版本需要 Android [android_version] 或更高的版本。",
        "suggest_downloading_via_fdroid": "雖然在下方可選擇下載 APK 檔案，但要留意這樣的安裝方式將不會收到更新通知，是一種較不安全的下載方法。建議您先安裝 F-Droid 用戶端使用。",
        "source_code": "原始碼",
        "flattr": "Flattr",
        "anti_features": "反特徵"
    },
    "sidebars": {
        "latest_packages": {
            "heading": "最近新增"
        },
        "news": {
            "heading": "新聞"
        },
        "search": {
            "noscript": "此功能需要啟動 JavaScript",
            "search": "搜尋",
            "heading": "搜尋應用程式"
        },
        "donate": {
            "bank_transfer_name": "名稱",
            "bitcoin_alt": "透過 Bitcoin 捐助",
            "powered_by_donations": "F-Droid 的動力來自於您的捐助！",
            "via_bank_transfer": "銀行轉帳",
            "litecoin_alt": "透過 Litecoin 捐助",
            "flattr_alt": "透過 Flattr 捐助",
            "paypal_alt": "透過 PayPal 捐助",
            "liberapay_alt": "透過 Liberapay 捐助",
            "heading": "捐助",
            "hellotux": "👕 T-shirt 👕 來自",
            "hellotux_alt": "HELLOTUX",
            "hellotux_donation": "每賣出一件衣服，F-Droid 就會收到 3 歐元。"
        },
        "last_updated": {
            "heading": "最近更新"
        }
    }
}
