{
    "index": {
        "download_fdroid": "Descarregar F-Droid",
        "introduction": "F-Droid é um catálogo de aplicações FOSS (software livre e open source) para Android. Disponibiliza um cliente que permite explorar, instalar e acompanhar atualizações no seu dispositivo móvel.",
        "gpg_signature": "Assinatura PGP",
        "screenshot": "Captura de ecrã da app F-Droid para Android",
        "title": "O que é o F-Droid?"
    },
    "navigation": {
        "about": "Acerca",
        "contribute": "Participar",
        "forum": "Fórum",
        "browse": "Explorar",
        "documentation": "Documentação",
        "repomaker": "Criador de repositório",
        "tutorials": "Tutoriais",
        "news": "Notícias",
        "issues": "Problemas"
    },
    "sidebars": {
        "latest_packages": {
            "heading": "Aplicações Recentes"
        },
        "news": {
            "heading": "Notícias"
        },
        "search": {
            "noscript": "Precisa de JavaScript",
            "search": "Procurar",
            "heading": "Procurar Apps"
        },
        "donate": {
            "bank_transfer_name": "Nome",
            "via_bank_transfer": "Transferência bancária",
            "powered_by_donations": "F-Droid é mantido através dos vossos donativos!",
            "bitcoin_alt": "Fazer donativo através de Bitcoin",
            "litecoin_alt": "Fazer donativo via Litecoin",
            "flattr_alt": "Fazer donativo via Flattr",
            "paypal_alt": "Fazer donativo via PayPal",
            "liberapay_alt": "Fazer donativo via Liberapay",
            "heading": "Fazer Donativo",
            "hellotux": "👕 T-Shirts 👕 de",
            "hellotux_alt": "HELLOTUX",
            "hellotux_donation": "F-Droid receberá 3 euros por camisa vendida."
        },
        "last_updated": {
            "heading": "Última atualização"
        }
    },
    "package": {
        "website": "Página Web",
        "version_info": "<b>Versão[package_version]</b> ([package_version_code]) - Adicionada em [package_added_date]",
        "donate": "Fazer Donativo",
        "liberapay": "Site Liberapay",
        "flattr": "Flattr",
        "license": "Licença",
        "build_metadata": "Compilar Metadados",
        "new_in_version": "Novo na versão [latest_version]",
        "changelog": "Histórico de Versões",
        "packages": "Pacotes",
        "issue_tracker": "Gestor de Problemas",
        "signed_by_developer": "Produzido e compilado pelo desenvolvedor original.",
        "gpg_signature": "Assinatura PGP",
        "signed_by_fdroid": "Desenvolvida e compilada por F-Droid, garantia correspondente a <a href=\"[source_code_url]\">tarball the origem tarball</a>.",
        "author": "Autor",
        "technical_info": "Informação Técnica",
        "download": "Descarregar [file_extension]",
        "source_code": "Código Fonte",
        "suggest_downloading_via_fdroid": "Apesar de ser possível descarregar APKs, alertamos que ao instalar desta forma nao irá receber notificações para atualizações e que é uma forma menos segura para descargas. É recomendável usar o cliente F-Droid para o efeito.",
        "minimum_android_version": "Está versão requer Android [android_version] ou mais recente.",
        "permissions": "Permissões"
    }
}
